,refNum,Skipped,Delta,Test size,MSE,MAPE
0,LOREUS,True,,,nan,nan
1,CSINUS,False,60.0,100.0,1.08,0.30
2,SOUTUS,False,60.0,100.0,3.85,1.11
3,SUSQA004Y,False,180.0,89.0,0.42,0.28
4,PSAUA005B,False,720.0,98.0,217.68,2.30
5,KSINUS,True,,,nan,nan
6,IRBYUS,False,360.0,100.0,0.79,0.43
7,KOCGUS,True,,,nan,nan
8,PRFIUS,False,60.0,99.0,0.70,0.25
9,MITCA000J,False,240.0,94.0,715347.53,180.77
10,ACCOUS,False,60.0,99.0,0.41,0.23
11,RXREUS,False,60.0,100.0,68.05,1.53
12,INREUS,False,60.0,100.0,0.01,0.01
13,IPSEUS,False,120.0,100.0,8.21,0.55
14,PVH1US,False,360.0,99.0,166618.58,160.98
15,NEBRUS,False,180.0,86.0,26.15,2.83
16,BEENUS,False,60.0,100.0,0.02,0.02
17,ACCOGLOBAL,False,360.0,100.0,860.11,23.97
18,DNOEUS,False,60.0,100.0,0.01,0.01
19,PHILUS,False,360.0,99.0,7312.66,26.49
20,PRIDUS,False,60.0,100.0,180.28,5.98
21,VIVIUS,False,60.0,100.0,0.00,0.00
22,HEDEUS,False,180.0,99.0,10.46,2.06
23,ZENDUS,False,360.0,100.0,19.57,3.29
24,TREYUS,False,60.0,100.0,0.00,0.00
25,AAMAUS,False,60.0,100.0,36.80,4.84
26,ADREUS,False,60.0,100.0,0.75,0.31
27,ADCLUS,False,60.0,100.0,0.11,0.09
28,TFBOUS,False,60.0,100.0,0.00,0.00
29,TWENUS,False,360.0,100.0,0.19,0.13
30,BAHUGLOBAL,False,60.0,100.0,67.71,4.63
31,SBSEUS,False,60.0,100.0,0.11,0.05
32,WEWOUS,False,480.0,99.0,94544.14,157.23
33,KLHKUS,False,60.0,100.0,326.51,3.91
34,SLGAUS,False,60.0,100.0,0.67,0.17
35,INWAUS,False,60.0,100.0,0.17,0.05
36,FROEUS,False,240.0,100.0,8867.90,16.92
37,HICOUS,False,60.0,100.0,0.20,0.14
38,RASOUS,False,60.0,100.0,0.01,0.01
39,REGEA0026,False,360.0,98.0,28.67,3.06
40,HMSTUS,False,60.0,100.0,0.05,0.03
41,ECGRUS,False,60.0,100.0,0.14,0.12
42,WUGRUS,False,60.0,100.0,0.53,0.23
43,ACPUUS,False,60.0,100.0,4.90,1.10
44,FASWUS,False,60.0,100.0,1.11,0.55
45,AWGRUS,False,360.0,100.0,1747.62,30.28
46,HOOTUS,False,300.0,100.0,73.69,2.13
47,IDEXUS,False,60.0,100.0,1.22,0.80
48,RBCAA0088,False,60.0,100.0,423.00,7.56
49,THSEUS,False,300.0,100.0,7355.94,15.80
50,TPCOUS,False,240.0,100.0,0.61,0.25
51,CIELUS,False,360.0,100.0,2.91,0.99
52,BAE1US,False,120.0,100.0,464.65,10.11
53,WAMAUS,False,120.0,100.0,118063.28,218.04
54,SONEUS,False,360.0,100.0,10.95,1.79
55,ARBYUS,False,240.0,99.0,4320456.73,1452.87
56,VILIA005J,False,240.0,99.0,7603.86,68.89
57,FORTUS,False,240.0,100.0,210.14,11.94
58,DENNGLOBAL,False,60.0,100.0,632826.59,741.15
59,HCPAUS,False,240.0,100.0,47.85,3.61
60,AMNCA0089,False,120.0,100.0,3.00,1.52
61,TOBRUS,False,360.0,100.0,8.01,1.21
62,SBGAGB,False,300.0,100.0,0.92,0.52
63,CONMGLOBAL,False,360.0,100.0,7431.53,70.37
64,DISYUS,False,240.0,100.0,22.90,2.64
65,SUSEUS,False,360.0,100.0,102.53,8.67
66,WHFOGLOBAL,False,60.0,100.0,106.86,6.20
67,IMC1GLOBAL,False,120.0,100.0,0.83,0.59
68,ANCEUS,False,120.0,100.0,0.52,0.32
69,HOHUUS,False,240.0,99.0,0.41,0.31
70,SEI1GLOBAL,False,120.0,99.0,118.67,1.74
71,LITIGLOBAL,False,360.0,100.0,55051.60,42.46
72,GENEA0084,False,480.0,97.0,73.56,7.33
73,SEMEUS,False,360.0,100.0,2959.17,25.37
74,FMCRUS,False,240.0,100.0,0.00,0.00
75,COVAGLOBAL,False,180.0,100.0,290.96,10.00
76,GRSLGB,False,240.0,99.0,0.58,0.35
77,WHSYUS,False,360.0,100.0,300.37,11.75
78,CLOUUS,False,120.0,100.0,0.21,0.13
79,ABLAUS,False,120.0,100.0,46086.67,40.65
80,MONEUS,False,240.0,100.0,0.37,0.21
81,DAGRUS,False,120.0,100.0,1.82,0.62
82,DAVIUS,False,120.0,100.0,48.23,4.21
83,FLBLUS,False,120.0,100.0,2.35,0.83
84,WAGRGB,False,120.0,100.0,11.70,2.16
85,ADTAUS,False,240.0,100.0,143.09,8.89
86,DCMGUS,False,120.0,100.0,0.08,0.08
87,MSD1GB,False,240.0,100.0,159.18,6.56
88,MERCUS,False,240.0,100.0,209.84,6.40
89,FCSOUS,False,120.0,100.0,0.01,0.01
90,COREUS,False,180.0,100.0,10.24,1.08
91,GEAPUS,False,120.0,100.0,373.12,2.34
92,GUCOUS,False,120.0,100.0,0.07,0.07
93,MEHEUS,False,120.0,84.0,138.12,6.71
94,ALIGUS,False,240.0,100.0,2.79,0.81
95,NOSOUS,False,120.0,100.0,0.13,0.07
96,LAFOGLOBAL,False,180.0,100.0,66.72,1.80
97,JAZZGLOBAL,False,120.0,100.0,2487.23,45.53
98,SAMAUS,False,240.0,99.0,3776.28,50.81
99,CUWAGLOBAL,False,120.0,100.0,115.85,5.87
100,GUIDUS,False,120.0,100.0,3.65,1.23
101,NOHIUS,False,120.0,100.0,0.21,0.21
102,CUNAUS,False,120.0,100.0,0.55,0.27
103,FLINUS,False,480.0,91.0,226732.32,95.90
104,GUSOUS,False,120.0,100.0,0.04,0.02
105,ARELUS,False,180.0,96.0,31686.34,158.84
106,AMERUS,False,240.0,100.0,4.12,0.42
107,ADGRUS,False,360.0,100.0,1.10,0.56
108,RLCOUS,False,240.0,99.0,11.68,1.68
109,MICRGLOBAL,False,360.0,99.0,194528.01,371.91
110,NFINUS,False,360.0,100.0,1546.42,12.78
111,DELOA003X,False,360.0,96.0,4486060.27,1802.29
112,BROTUS,False,240.0,99.0,0.12,0.08
113,INBRUS,False,300.0,100.0,2392.55,40.11
114,ESMEUS,False,360.0,100.0,30.72,3.68
115,EMSOUS,False,360.0,100.0,6.86,1.52
116,CHEGA0056,False,180.0,100.0,1.16,0.54
117,NIDRUS,False,360.0,100.0,61.63,1.15
118,SAGEUS,False,240.0,100.0,1.55,1.09
119,CITRA0058,False,300.0,99.0,11.89,2.05
120,MEMOA005E,False,720.0,98.0,4.99,1.54
121,BMCEUS,False,720.0,100.0,54.71,4.49
122,BOOKUS,False,480.0,97.0,2045.13,16.00
123,SAHEGLOBAL,False,180.0,86.0,22.47,1.84
124,CMCEUS,False,360.0,100.0,8.21,1.93
125,DELAA003Y,False,480.0,100.0,220.85,10.03
126,VIMAUS,False,240.0,100.0,4.38,1.28
127,NBLLUS,False,360.0,100.0,29.84,2.14
128,MESTUS,False,480.0,100.0,40.10,0.98
129,TRINUS,False,360.0,100.0,4426.10,17.82
130,MIHEUS,False,720.0,97.0,0.69,0.36
131,WORKUS,False,180.0,49.0,0.02,0.02
132,TSINUS,False,720.0,98.0,15273.48,94.72
133,TENXA008G,False,240.0,100.0,7.56,1.00
