,deletedJobsCount,deletedJobsCount,deletedJobsCount,newJobsCount,newJobsCount,newJobsCount,updatedJobsCount,updatedJobsCount,updatedJobsCount,totalPull,totalPull,totalPull,,,
,mean,count,sum,mean,count,sum,mean,count,sum,mean,count,sum,,,
refNum,,,,,,,,,,,,,refNum,JobPull Schedule (UTC),[Fri   Mon   Sat Sun  Thur  Tues  Wed lessActiveDays RefNum
WORKUS,0.998277004638834,7545,7532,0.998144466534129,7545,7531,0.997879390324718,7545,7529,0.995228628230616,7545,7509,WORKUS,,
FCSOUS,0.997872340425532,470,469,0.995744680851064,470,468,0.995744680851064,470,468,0.98936170212766,470,465,FCSOUS,for every 2 hrs,"[1, 1, 1, 1, 4, 3, 1, [], 'FCSOUS']"
HMSTUS,0.995539696699376,2242,2232,0.994647636039251,2242,2230,0.9964317573595,2242,2234,0.987065120428189,2242,2213,HMSTUS,4th minute of every hour,"[13, 13, 6, 3, 6, 4, 7, [], 'HMSTUS']"
FMCRUS,0.994487320837927,907,902,0.995589856670342,907,903,0.993384785005513,907,901,0.984564498346196,907,893,FMCRUS,"10:01 ,12:01 ,15:01 ,20:01 ,23:01 ,2:01","[6, 10, 0, 0, 20, 6, 4, ['Saturday', 'Sunday'], 'FMCRUS']"
DNOEUS,0.992256637168142,1808,1794,0.991150442477876,1808,1792,0.995022123893805,1808,1799,0.981194690265487,1808,1774,DNOEUS,,"[11, 10, 7, 1, 9, 11, 10, ['Sunday'], 'DNOEUS']"
INWAUS,0.990633363068689,2242,2221,0.994647636039251,2242,2230,0.990187332738626,2242,2220,0.980820695807315,2242,2199,INWAUS,8th minute of every hour,"[44, 23, 1, 12, 44, 8, 33, ['Saturday'], 'INWAUS']"
BEENUS,0.993747208575257,2239,2225,0.992407324698526,2239,2222,0.989727556945065,2239,2216,0.97945511389013,2239,2193,BEENUS,20th minute of every hour,"[40, [], 'BEENUS1']"
TFBOUS,0.991079393398751,2242,2222,0.992863514719001,2242,2226,0.991971454058876,2242,2224,0.978590544157002,2242,2194,TFBOUS,12th minute of every hour,"[15, 20, 2, 3, 18, 22, 21, ['Saturday'], 'TFBOUS']"
RASOUS,0.992863514719001,2242,2226,0.991525423728814,2242,2223,0.984834968777877,2242,2208,0.972346119536128,2242,2180,RASOUS,6th minute of every hour,"[53, 25, 4, 9, 23, 24, 25, ['Saturday'], 'RASOUS']"
TREYUS,0.983957219251337,2244,2208,0.984848484848485,2244,2210,0.988859180035651,2244,2219,0.966577540106952,2244,2169,TREYUS,14th minute every hour,"[46, 14, 20, 13, 21, 32, 17, [], 'TREYUS']"
GUSOUS,0.985042735042735,468,461,0.982905982905983,468,460,0.995726495726496,468,466,0.965811965811966,468,452,GUSOUS,for every 2 hrs,"[5, 3, 3, 4, 11, 3, 3, [], 'GUSOUS']"
VIVIUS,0.975935828877005,2244,2190,0.984848484848485,2244,2210,0.990641711229946,2244,2223,0.962121212121212,2244,2159,VIVIUS,16th minute of every hour,"[30, 56, 7, 6, 18, 26, 28, [], 'VIVIUS']"
INREUS,0.97759823723834,2723,2662,0.980903415350716,2723,2671,0.986412045538009,2723,2686,0.952993022401763,2723,2595,INREUS,20th min of every 2 hours,"[179, 47, 33, 12, 446, 85, 104, ['Saturday', 'Sunday'], 'INREUS']"
SBSEUS,0.991252050300711,1829,1813,0.987971569163477,1829,1807,0.962821213778021,1829,1761,0.946418808091853,1829,1731,SBSEUS,10th min of every third hour,"[80, 51, 21, 13, 103, 70, 132, ['Sunday'], 'SBSEUS']"
SLGAUS,0.966993755575379,2242,2168,0.974576271186441,2242,2185,0.979482604817128,2242,2196,0.936663693131133,2242,2100,SLGAUS,10th minute of every hour,"[120, 57, 41, 28, 40, 68, 36, [], 'SLGAUS']"
NOSOUS,0.967948717948718,468,453,0.974358974358974,468,456,0.993589743589744,468,465,0.935897435897436,468,438,NOSOUS,for every 2 hrs,"[10, 9, 5, 5, 30, 5, 3, [], 'NOSOUS']"
DCMGUS,0.982905982905983,468,460,0.974358974358974,468,456,0.972222222222222,468,455,0.933760683760684,468,437,DCMGUS,for every 2 hrs,"[11, 9, 0, 0, 47, 18, 13, ['Saturday', 'Sunday'], 'DCMGUS']"
MESTUS,0.964601769911504,452,436,0.957964601769912,452,433,0.984513274336283,452,445,0.922566371681416,452,417,MESTUS,"15:10 ,18:10 ,21:10","[357, 320, 45, 226, 309, 129, 179, [], 'MESTUS']"
AMERUS,0.960220994475138,905,869,0.962430939226519,905,871,0.98121546961326,905,888,0.917127071823204,905,830,AMERUS,"00, 03, 06, 12, 18, 22","[102, 44, 13, 6, 213, 285, 96, ['Saturday', 'Sunday'], 'AMERUS']"
BROTUS,0.965821389195149,907,876,0.969128996692392,907,879,0.976846747519294,907,886,0.916207276736494,907,831,BROTUS,"11:06 ,14:06, 16:06, 18:06, 20:06, 22:06","[76, 164, 10, 1, 119, 44, 124, ['Saturday', 'Sunday'], 'BROTUS']"
GUCOUS,0.950854700854701,468,445,0.957264957264957,468,448,0.976495726495726,468,457,0.897435897435897,468,420,GUCOUS,for every 2 hrs,"[15, 15, 2, 1, 50, 14, 18, ['Saturday', 'Sunday'], 'GUCOUS']"
ADCLUS,0.952291274325173,3186,3034,0.951349654739485,3186,3031,0.986817325800377,3186,3144,0.897363465160075,3186,2859,ADCLUS,13th Min of every hour,"[188, 352, 127, 49, 705, 246, 206, ['Sunday'], 'ADCLUS']"
RXREUS,0.978156238430211,2701,2642,0.967049241021844,2701,2612,0.922621251388375,2701,2492,0.896704924102184,2701,2422,RXREUS,,
IMC1GLOBAL,0.974779319041614,1586,1546,0.98234552332913,1586,1558,0.916141235813367,1586,1453,0.885876418663304,1586,1405,IMC1GLOBAL,,
CLOUUS,0.953246753246753,1540,1468,0.972077922077922,1540,1497,0.905194805194805,1540,1394,0.85974025974026,1540,1324,CLOUUS,,
PSAUA005B,0.943521594684385,301,284,0.920265780730897,301,277,0.980066445182724,301,295,0.850498338870432,301,256,PSAUA005B,,
FIGLUS,1,20,20,0.95,20,19,0.9,20,18,0.85,20,17,FIGLUS,,
BWWIUS,0.903846153846154,104,94,0.894230769230769,104,93,0.923076923076923,104,96,0.846153846153846,104,88,BWWIUS,,
MONEUS,0.919275123558484,607,558,0.934102141680395,607,567,0.939044481054366,607,570,0.835255354200988,607,507,MONEUS,,
ECGRUS,0.940364439536168,3622,3406,0.964936499171728,3622,3495,0.909994478188846,3622,3296,0.835173937051353,3622,3025,ECGRUS,,
ACCOUS,0.926851025869759,2242,2078,0.925066904549509,2242,2074,0.916592328278323,2242,2055,0.818911685994648,2242,1836,ACCOUS,,
HICOUS,0.915506636451926,3089,2828,0.916477824538685,3089,2831,0.941404985432179,3089,2908,0.815474263515701,3089,2519,HICOUS,,
WUGRUS,0.898342541436464,3620,3252,0.909116022099447,3620,3291,0.962430939226519,3620,3484,0.814088397790055,3620,2947,WUGRUS,,
TPCOUS,0.906077348066298,905,820,0.900552486187845,905,815,0.920441988950276,905,833,0.809944751381215,905,733,TPCOUS,,
SEI1GLOBAL,0.867913832199546,1764,1531,0.878684807256236,1764,1550,0.986394557823129,1764,1740,0.802154195011338,1764,1415,SEI1GLOBAL,,
CSINUS,0.904998619165976,3621,3277,0.901960784313726,3621,3266,0.950566141949738,3621,3442,0.80060756697045,3621,2899,CSINUS,,
SUSQA004Y,0.903193612774451,1002,905,0.910179640718563,1002,912,0.940119760479042,1002,942,0.792415169660679,1002,794,SUSQA004Y,,
NIDRUS,0.9106239460371,593,540,0.912310286677909,593,541,0.868465430016863,593,515,0.78920741989882,593,468,NIDRUS,,
TENXA008G,0.915555555555556,450,412,0.911111111111111,450,410,0.926666666666666,450,417,0.786666666666667,450,354,TENXA008G,,
KSINUS,0.905261704184505,7241,6555,0.878055517193758,7241,6358,0.951802237260047,7241,6892,0.782350504074023,7241,5665,KSINUS,,
MIHEUS,0.892508143322475,307,274,0.925081433224756,307,284,0.915309446254072,307,281,0.781758957654723,307,240,MIHEUS,,
CUNAUS,0.87893864013267,1809,1590,0.877280265339967,1809,1587,0.945826423438364,1809,1711,0.775566611387507,1809,1403,CUNAUS,,
TWENUS,0.884105960264901,604,534,0.90728476821192,604,548,0.94205298013245,604,569,0.77317880794702,604,467,TWENUS,,
HOHUUS,0.856647398843931,865,741,0.883236994219653,865,764,0.966473988439306,865,836,0.76878612716763,865,665,HOHUUS,,
ADREUS,0.871893981225842,3622,3158,0.881833241303147,3622,3194,0.946162341247929,3622,3427,0.765875207067918,3622,2774,ADREUS,,
NOHIUS,0.843940232429441,1807,1525,0.916989485334809,1807,1657,0.906474820143885,1807,1638,0.753735473159934,1807,1362,NOHIUS,,
IPSEUS,0.866125760649087,986,854,0.862068965517241,986,850,0.92393509127789,986,911,0.737322515212982,986,727,IPSEUS,,
DAGRUS,0.833523375142531,1754,1462,0.812998859749145,1754,1426,0.891676168757127,1754,1564,0.734891676168757,1754,1289,DAGRUS,,
GRSLGB,0.858585858585859,693,595,0.84992784992785,693,589,0.953823953823954,693,661,0.733044733044733,693,508,GRSLGB,,
TOBRUS,0.797826086956522,460,367,0.784782608695652,460,361,0.893478260869565,460,411,0.730434782608696,460,336,TOBRUS,,
FASWUS,0.799115777839182,3619,2892,0.773694390715667,3619,2800,0.90024868748273,3619,3258,0.730035921525283,3619,2642,FASWUS,,
PRFIUS,0.843967828418231,1865,1574,0.847721179624665,1865,1581,0.899195710455764,1865,1677,0.72171581769437,1865,1346,PRFIUS,,
LAFOGLOBAL,0.914438502673797,1122,1026,0.889483065953654,1122,998,0.786096256684492,1122,882,0.7174688057041,1122,805,LAFOGLOBAL,,
COREUS,0.836092715231788,1208,1010,0.815397350993377,1208,985,0.825331125827815,1208,997,0.71523178807947,1208,864,COREUS,,
ADGRUS,0.901477832512315,609,549,0.880131362889984,609,536,0.812807881773399,609,495,0.714285714285714,609,435,ADGRUS,,
IRBYUS,0.85655737704918,488,418,0.879098360655738,488,429,0.885245901639344,488,432,0.713114754098361,488,348,IRBYUS,,
ANCEUS,0.887292817679558,1810,1606,0.907182320441989,1810,1642,0.742541436464088,1810,1344,0.698895027624309,1810,1265,ANCEUS,,
SOUTUS,0.865894302491668,6301,5456,0.84335819711157,6301,5314,0.883986668782733,6301,5570,0.696556102205999,6301,4389,SOUTUS,,
KLHKUS,0.742265193370166,3620,2687,0.762707182320442,3620,2761,0.910497237569061,3620,3296,0.692265193370166,3620,2506,KLHKUS,,
SBGAGB,0.842384105960265,755,636,0.83046357615894,755,627,0.860927152317881,755,650,0.687417218543046,755,519,SBGAGB,,
GEAPUS,0.807182320441989,1810,1461,0.813259668508287,1810,1472,0.919337016574585,1810,1664,0.687292817679558,1810,1244,GEAPUS,,
CHEGA0056,0.873344370860927,1208,1055,0.891556291390728,1208,1077,0.821192052980132,1208,992,0.683774834437086,1208,826,CHEGA0056,,
MEMOA005E,0.673333333333333,300,202,0.753333333333333,300,226,0.746666666666667,300,224,0.61,300,183,MEMOA005E,,
FLBLUS,0.805882352941176,510,411,0.73921568627451,510,377,0.835294117647059,510,426,0.605882352941176,510,309,FLBLUS,,
BAE1US,0.687088274044796,3036,2086,0.722332015810277,3036,2193,0.702898550724638,3036,2134,0.600131752305665,3036,1822,BAE1US,,
LOREUS,0.929497171870129,22453,20870,0.88803277958402,22453,19939,0.649133746047299,22453,14575,0.581347704092994,22453,13053,LOREUS,,
EMSOUS,0.630794701986755,604,381,0.677152317880795,604,409,0.846026490066225,604,511,0.562913907284768,604,340,EMSOUS,,
HOOTUS,0.851851851851852,756,644,0.82010582010582,756,620,0.64021164021164,756,484,0.558201058201058,756,422,HOOTUS,,
WAGRGB,0.715651135005974,837,599,0.738351254480287,837,618,0.876941457586619,837,734,0.55794504181601,837,467,WAGRGB,,
FROEUS,0.615469613259669,905,557,0.613259668508287,905,555,0.845303867403315,905,765,0.54585635359116,905,494,FROEUS,,
ALIGUS,0.708287292817679,905,641,0.72707182320442,905,658,0.840883977900552,905,761,0.543646408839779,905,492,ALIGUS,,
SAHEGLOBAL,0.708245243128964,473,335,0.742071881606765,473,351,0.847780126849894,473,401,0.54122621564482,473,256,SAHEGLOBAL,,
MEHEUS,0.561345646437995,1516,851,0.58245382585752,1516,883,0.592348284960422,1516,898,0.496701846965699,1516,753,MEHEUS,,
USVEUS,0.775280898876405,89,69,0.741573033707865,89,66,0.651685393258427,89,58,0.49438202247191,89,44,USVEUS,,
AMNCA0089,0.81023102310231,1818,1473,0.828382838283828,1818,1506,0.624312431243124,1818,1135,0.493949394939494,1818,898,AMNCA0089,,
DISYUS,0.650723025583982,899,585,0.676307007786429,899,608,0.541713014460512,899,487,0.476084538375973,899,428,DISYUS,,
NEBRUS,0.592383638928068,709,420,0.669957686882934,709,475,0.72919605077574,709,517,0.469675599435825,709,333,NEBRUS,,
ADTAUS,0.687591240875912,685,471,0.68029197080292,685,466,0.503649635036496,685,345,0.465693430656934,685,319,ADTAUS,,
CIELUS,0.688225538971808,603,415,0.689883913764511,603,416,0.689883913764511,603,416,0.462686567164179,603,279,CIELUS,,
COHEUS,0.493589743589744,156,77,0.544871794871795,156,85,0.762820512820513,156,119,0.461538461538462,156,72,COHEUS,,
PRIDUS,0.521229868228404,2732,1424,0.574670571010249,2732,1570,0.653001464128843,2732,1784,0.456076134699854,2732,1246,PRIDUS,,
IDEXUS,0.808786957723128,3619,2927,0.803260569218016,3619,2907,0.58469190384084,3619,2116,0.446808510638298,3619,1617,IDEXUS,,
SONEUS,0.562613430127042,551,310,0.586206896551724,551,323,0.653357531760436,551,360,0.44464609800363,551,245,SONEUS,,
MITCA000J,0.506944444444444,720,365,0.547222222222222,720,394,0.723611111111111,720,521,0.438888888888889,720,316,MITCA000J,,
GDHIUS,0.664,125,83,0.712,125,89,0.464,125,58,0.416,125,52,GDHIUS,,
SOSTUK,0.839506172839506,81,68,0.765432098765432,81,62,0.419753086419753,81,34,0.407407407407407,81,33,SOSTUK,,
BOOKUS,0.61576354679803,812,500,0.614532019704433,812,499,0.568965517241379,812,462,0.400246305418719,812,325,BOOKUS,,
HCPAUS,0.495588235294118,680,337,0.439705882352941,680,299,0.588235294117647,680,400,0.391176470588235,680,266,HCPAUS,,
VIMAUS,0.556291390728477,906,504,0.58167770419426,906,527,0.762693156732892,906,691,0.387417218543046,906,351,VIMAUS,,
SAGEUS,0.920879120879121,910,838,0.9,910,819,0.436263736263736,910,397,0.381318681318681,910,347,SAGEUS,,
RLCOUS,0.620994475138122,905,562,0.699447513812155,905,633,0.662983425414365,905,600,0.374585635359116,905,339,RLCOUS,,
INBRUS,0.914396887159533,514,470,0.892996108949416,514,459,0.447470817120623,514,230,0.369649805447471,514,190,INBRUS,,
ARBYUS,0.93141592920354,904,842,0.89712389380531,904,811,0.399336283185841,904,361,0.367256637168142,904,332,ARBYUS,,
CITRA0058,0.550531914893617,752,414,0.513297872340426,752,386,0.659574468085106,752,496,0.365691489361702,752,275,CITRA0058,,
HEDEUS,0.453565505804312,1206,547,0.472636815920398,1206,570,0.686567164179104,1206,828,0.359867330016584,1206,434,HEDEUS,,
TRINUS,0.572847682119205,604,346,0.584437086092715,604,353,0.45364238410596,604,274,0.344370860927152,604,208,TRINUS,,
THSEUS,0.522546419098143,754,394,0.49867374005305,754,376,0.505305039787798,754,381,0.335543766578249,754,253,THSEUS,,
REGEA0026,0.447933884297521,605,271,0.502479338842975,605,304,0.601652892561984,605,364,0.333884297520661,605,202,REGEA0026,,
WAMAUS,0.455012853470437,1167,531,0.499571550985433,1167,583,0.353041988003428,1167,412,0.331619537275064,1167,387,WAMAUS,,
VILIA005J,0.766850828729282,905,694,0.8,905,724,0.414364640883978,905,375,0.310497237569061,905,281,VILIA005J,,
DAVIUS,0.368711995577667,1809,667,0.451630735212825,1809,817,0.588723051409619,1809,1065,0.276948590381426,1809,501,DAVIUS,,
CMCEUS,0.360065466448445,611,220,0.513911620294599,611,314,0.72013093289689,611,440,0.274959083469722,611,168,CMCEUS,,
SEMEUS,0.411276948590382,603,248,0.391376451077944,603,236,0.472636815920398,603,285,0.271973466003317,603,164,SEMEUS,,
DELIGB,0.54,150,81,0.493333333333333,150,74,0.306666666666667,150,46,0.266666666666667,150,40,DELIGB,,
RBCAA0088,0.568552253116012,2086,1186,0.531639501438159,2086,1109,0.389261744966443,2086,812,0.25647171620326,2086,535,RBCAA0088,,
BAHUGLOBAL,0.442125765164163,3594,1589,0.430717863105175,3594,1548,0.495548135781859,3594,1781,0.238174735670562,3594,856,BAHUGLOBAL,,
CUWAGLOBAL,0.446098149637973,2486,1109,0.46379726468222,2486,1153,0.431617055510861,2486,1073,0.223250201126307,2486,555,CUWAGLOBAL,,
BMCEUS,0.28476821192053,302,86,0.301324503311258,302,91,0.745033112582781,302,225,0.211920529801324,302,64,BMCEUS,,
MERCUS,0.408474576271186,590,241,0.440677966101695,590,260,0.622033898305085,590,367,0.210169491525424,590,124,MERCUS,,
ESMEUS,0.382450331125828,604,231,0.344370860927152,604,208,0.672185430463576,604,406,0.195364238410596,604,118,ESMEUS,,
NBLLUS,0.311367380560132,607,189,0.331136738056013,607,201,0.670510708401977,607,407,0.194398682042834,607,118,NBLLUS,,
AWGRUS,0.552238805970149,603,333,0.54228855721393,603,327,0.38971807628524,603,235,0.194029850746269,603,117,AWGRUS," 1, 13, 17, 21","[6219, 6578, 6238, 5613, 6796, 5918, 6847, [], 'AWGRUS']"
BOX1US,0.318181818181818,110,35,0.390909090909091,110,43,0.263636363636364,110,29,0.190909090909091,110,21,BOX1US,,
LITIGLOBAL,0.198019801980198,606,120,0.577557755775578,606,350,0.524752475247525,606,318,0.153465346534653,606,93,LITIGLOBAL,,
TSINUS,0.358744394618834,223,80,0.430493273542601,223,96,0.426008968609865,223,95,0.143497757847534,223,32,TSINUS,,
WEWOUS,0.185840707964602,452,84,0.285398230088496,452,129,0.216814159292035,452,98,0.141592920353982,452,64,WEWOUS,,
ZENDUS,0.408914728682171,516,211,0.428294573643411,516,221,0.226744186046512,516,117,0.13953488372093,516,72,ZENDUS,,
DELAA003Y,0.254838709677419,310,79,0.274193548387097,310,85,0.193548387096774,310,60,0.135483870967742,310,42,DELAA003Y,,
ABLAUS,0.190397350993377,1812,345,0.330022075055188,1812,598,0.344922737306843,1812,625,0.129139072847682,1812,234,ABLAUS,,
FORTUS,0.345335515548281,611,211,0.468085106382979,611,286,0.148936170212766,611,91,0.126022913256956,611,77,FORTUS,,
ACPUUS,0.882457702582369,2246,1982,0.871326803205699,2246,1957,0.152715939447907,2246,343,0.1246660730187,2246,280,ACPUUS,,
WHFOGLOBAL,0.350674915635546,3556,1247,0.351799775028121,3556,1251,0.357424071991001,3556,1271,0.123734533183352,3556,440,WHFOGLOBAL,,
CONMGLOBAL,0.808972503617945,691,559,0.798842257597685,691,552,0.136034732272069,691,94,0.118668596237337,691,82,CONMGLOBAL,,
GUIDUS,0.771111111111111,450,347,0.724444444444444,450,326,0.16,450,72,0.117777777777778,450,53,GUIDUS,,
MSD1GB,0.222033898305085,590,131,0.267796610169491,590,158,0.503389830508475,590,297,0.115254237288136,590,68,MSD1GB,,
NFINUS,0.637271214642263,601,383,0.638935108153078,601,384,0.114808652246256,601,69,0.114808652246256,601,69,NFINUS,,
COVAGLOBAL,0.408119658119658,936,382,0.426282051282051,936,399,0.161324786324786,936,151,0.104700854700855,936,98,COVAGLOBAL,,
GENEA0084,0.418032786885246,366,153,0.469945355191257,366,172,0.076502732240437,366,28,0.076502732240437,366,28,GENEA0084,,
PHILUS,0.101973684210526,608,62,0.189144736842105,608,115,0.358552631578947,608,218,0.074013157894737,608,45,PHILUS,,
FLINUS,0.437275985663083,558,244,0.480286738351255,558,268,0.197132616487455,558,110,0.07168458781362,558,40,FLINUS,,
JAZZGLOBAL,0.875690607734807,1810,1585,0.897237569060773,1810,1624,0.066850828729282,1810,121,0.064640883977901,1810,117,JAZZGLOBAL,,
CARMUS,0.7,20,14,0.7,20,14,0.1,20,2,0.05,20,1,CARMUS,,
MICRGLOBAL,0.350498338870432,602,211,0.401993355481728,602,242,0.041528239202658,602,25,0.041528239202658,602,25,MICRGLOBAL,,
SUSEUS,0.810945273631841,603,489,0.81592039800995,603,492,0.041459369817579,603,25,0.041459369817579,603,25,SUSEUS,,
DENNGLOBAL,0.962420558165239,3619,3483,0.972920696324952,3619,3521,0.042553191489362,3619,154,0.040618955512573,3619,147,DENNGLOBAL,,
SAMAUS,0.805953693495039,907,731,0.811466372657111,907,736,0.028665931642778,907,26,0.028665931642778,907,26,SAMAUS,,
QUADGLOBAL,0.947368421052632,38,36,0.763157894736842,38,29,0.052631578947369,38,2,0.026315789473684,38,1,QUADGLOBAL,,
ARELUS,0.518691588785047,214,111,0.425233644859813,214,91,0.02803738317757,214,6,0.023364485981309,214,5,ARELUS,,
COLIGLOBAL,0.661290322580645,62,41,0.741935483870968,62,46,0.032258064516129,62,2,0.016129032258065,62,1,COLIGLOBAL,,
ACCOGLOBAL,0.072,250,18,0.084,250,21,0.02,250,5,0.012,250,3,ACCOGLOBAL,,
PVH1US,0.118161925601751,457,54,0.096280087527352,457,44,0.072210065645514,457,33,0.010940919037199,457,5,PVH1US,,
DELOA003X,0.027491408934708,291,8,0.037800687285223,291,11,0.003436426116838,291,1,0.003436426116838,291,1,DELOA003X,,
WHSYUS,0.09452736318408,603,57,0.043117744610282,603,26,0.291873963515755,603,176,0.001658374792703,603,1,WHSYUS,,
KOCGUS,0.566707466340269,1634,926,0.499388004895961,1634,816,0,1634,0,0,1634,0,KOCGUS,,
BEENUS1,1,2,2,0,2,0,1,2,2,0,2,0,BEENUS1,,
BAYAUS,0.263636363636364,110,29,0.345454545454545,110,38,0,110,0,0,110,0,BAYAUS,,
